module lion.com/task_list

go 1.17

require (
	github.com/golang/protobuf v1.5.2
	go.mongodb.org/mongo-driver v1.7.1
	google.golang.org/grpc v1.40.0
	google.golang.org/protobuf v1.27.1
)

require (
	github.com/go-stack/stack v1.8.0 // indirect
	github.com/golang/snappy v0.0.1 // indirect
	github.com/jinzhu/gorm v1.9.16 // indirect
	github.com/klauspost/compress v1.9.5 // indirect
	github.com/lib/pq v1.1.1 // indirect
	github.com/pkg/errors v0.9.1 // indirect
	github.com/xdg-go/pbkdf2 v1.0.0 // indirect
	github.com/xdg-go/scram v1.0.2 // indirect
	github.com/xdg-go/stringprep v1.0.2 // indirect
	github.com/youmark/pkcs8 v0.0.0-20181117223130-1be2e3e5546d // indirect
	golang.org/x/crypto v0.0.0-20200622213623-75b288015ac9 // indirect
	golang.org/x/net v0.0.0-20200822124328-c89045814202 // indirect
	golang.org/x/sync v0.0.0-20190911185100-cd5d95a43a6e // indirect
	golang.org/x/sys v0.0.0-20200323222414-85ca7c5b95cd // indirect
	golang.org/x/text v0.3.5 // indirect
	google.golang.org/genproto v0.0.0-20200526211855-cb27e3aa2013 // indirect
)
